module api

go 1.21.0

require (
	github.com/gorilla/mux v1.8.0
	github.com/stretchr/testify v1.8.4
	google.golang.org/grpc v1.58.2
	google.golang.org/protobuf v1.31.0
)

require (
	github.com/davecgh/go-spew v1.1.1 // indirect
	github.com/golang/protobuf v1.5.3 // indirect
	github.com/pmezard/go-difflib v1.0.0 // indirect
	github.com/stretchr/objx v0.5.0 // indirect
	golang.org/x/net v0.12.0 // indirect
	golang.org/x/sys v0.10.0 // indirect
	golang.org/x/text v0.11.0 // indirect
	google.golang.org/genproto/googleapis/rpc v0.0.0-20230711160842-782d3b101e98 // indirect
	gopkg.in/yaml.v3 v3.0.1 // indirect
)
